ply 
format ascii 1.0 
comment this is a surface 
element vertex 456 
property float x 
property float y 
property float z 
element face 844 
property list uchar int vertex_index 
end_header 
7.467718 0.219827 -1.405078
7.304533 0.789780 -1.036508
7.320589 0.581541 -1.374908
7.483872 0.549689 -1.100278
7.449009 -0.165136 -1.300581
7.663897 -0.020401 -1.042472
7.650524 0.326109 -0.918898
7.466580 0.667703 -0.728416
7.391611 0.676295 -0.298602
7.576804 0.439098 -0.511697
7.695537 0.124087 -0.598953
7.673571 -0.250287 -0.682273
7.516579 0.309634 -0.100794
7.220363 -0.476436 -1.301453
7.505987 -0.396738 -1.003262
7.566369 -0.476688 -0.364548
7.635444 -0.089347 -0.267890
7.440269 -0.014862 0.142144
7.434104 -0.643904 -0.673152
7.401634 -0.638975 -0.078180
7.499368 -0.349849 -0.005574
6.278880 1.061017 -1.738997
5.779267 1.200899 -1.824306
6.513573 1.083995 -1.427546
5.978658 1.232829 -1.450638
5.407435 1.314318 -1.513643
7.026765 0.977055 -0.952560
6.717587 1.083733 -1.102116
6.211762 1.239893 -1.079627
5.640787 1.297568 -1.113584
6.514364 1.164634 -0.845443
5.895010 1.266127 -0.747608
7.168807 0.942430 -0.581016
6.794164 1.103457 -0.683306
6.329626 1.207106 -0.539303
5.658041 1.252377 -0.429799
7.070468 0.878816 -0.183756
6.650263 0.703896 0.373805
6.725870 0.928929 0.051863
6.725135 1.078482 -0.301931
6.209053 0.642025 0.606913
6.190793 0.907634 0.287399
6.322713 1.102338 -0.100095
6.008275 1.209673 -0.342400
5.831184 0.752250 0.582752
5.644641 0.929804 0.328586
5.788543 1.111093 -0.011990
5.278946 1.225301 -0.236569
7.111143 -0.017863 0.506305
7.236917 0.263535 0.283043
7.133400 0.629811 0.139241
6.732684 -0.064216 0.766735
6.889003 0.321623 0.552481
6.225015 -0.546269 1.099608
6.320333 -0.122371 1.011129
6.368615 0.254805 0.848513
6.534068 0.494514 0.604775
5.782458 -0.250153 1.262517
5.926621 0.138600 1.061817
5.702621 0.507435 0.884191
7.112283 -0.952642 0.137114
7.273233 -0.621084 0.206953
7.264655 -0.314884 0.351784
6.763933 -1.252754 0.133655
6.686003 -1.119181 0.551490
7.001785 -0.731747 0.491730
6.970376 -0.365109 0.609688
6.394879 -1.493343 0.322665
6.190286 -1.430572 0.742135
6.327075 -1.016911 0.938980
6.657432 -0.611714 0.841653
5.890714 -1.795863 0.547603
5.708923 -1.675632 0.939282
5.891418 -1.290318 1.119574
5.862602 -0.813928 1.254120
7.093178 -0.967629 -0.635244
7.283595 -0.855615 -0.310871
6.648059 -1.303020 -0.733110
6.932933 -1.170109 -0.256055
6.071658 -1.609413 -0.909812
6.296345 -1.611087 -0.537854
6.073649 -1.820333 -0.271127
6.503235 -1.496099 -0.154026
5.643714 -1.818251 -0.999792
5.754300 -1.955389 -0.608441
5.663740 -2.106066 -0.177757
6.043455 -1.823292 0.129752
6.898467 -0.735759 -1.312135
7.194599 -0.714495 -0.979847
6.555609 -0.749427 -1.623171
6.892711 -0.963023 -0.982535
6.585017 -1.024314 -1.253590
6.145115 -0.778889 -1.924704
6.234406 -1.033672 -1.561082
6.246536 -1.304613 -1.193355
5.788958 -1.099585 -1.857006
5.916106 -1.284802 -1.509583
5.773625 -1.557688 -1.265878
6.902159 -0.027605 -1.853830
7.206541 -0.135216 -1.587196
6.557523 0.052460 -2.069365
6.894799 -0.454757 -1.637064
5.958264 0.327122 -2.461031
6.199092 -0.022371 -2.277003
6.008933 -0.455175 -2.249067
6.481646 -0.410839 -1.962847
5.524797 0.248783 -2.695179
5.792358 -0.092744 -2.507888
5.534714 -0.493017 -2.529749
5.687847 -0.831882 -2.218133
7.037519 0.850056 -1.396337
7.130276 0.380074 -1.711258
6.761417 0.816025 -1.719590
6.488871 0.776634 -1.991339
6.744016 0.430377 -1.961414
6.106094 0.980357 -2.076513
5.906524 0.779074 -2.364408
6.321971 0.500744 -2.242136
5.613788 1.104383 -2.203448
5.400353 0.925757 -2.538280
5.636814 0.591818 -2.583263
4.868178 1.320098 -0.529528
5.358932 1.315278 -0.719267
5.018407 1.372748 -1.086490
4.886110 1.372242 -1.584203
5.244812 1.288682 -1.931564
3.988687 1.446778 -0.619977
4.442196 1.410917 -0.806763
4.514877 1.421972 -1.273671
4.247215 1.431049 -1.669907
4.659894 1.358958 -2.020633
3.214711 1.550203 -0.441262
3.537649 1.529596 -0.780843
3.948167 1.495214 -1.175454
3.641253 1.480387 -1.678291
3.986588 1.391149 -2.122461
2.700756 1.654608 -0.361387
2.941157 1.615146 -0.824473
3.293868 1.555564 -1.241019
2.979087 1.523736 -1.682017
3.317684 1.422133 -2.142052
4.815107 1.174397 -0.033356
4.269707 1.329893 -0.248383
3.654547 1.432544 -0.241061
3.132430 1.482964 -0.009943
5.244542 1.037400 0.194437
4.369750 1.129761 0.219962
3.666229 1.235950 0.326950
2.877244 1.401405 0.443925
4.794787 0.968099 0.418699
4.171493 0.963770 0.635297
3.654046 0.984034 0.805258
3.123103 1.125838 0.836282
5.267052 0.788448 0.645639
4.622969 0.750853 0.845647
4.001389 0.743098 1.044335
3.327636 0.811699 1.192669
5.045016 0.495817 1.043326
4.391557 0.475538 1.235003
3.704288 0.486301 1.412698
3.029287 0.531081 1.569131
5.413608 0.161641 1.195439
4.771925 0.151449 1.379841
4.105325 0.125435 1.566350
3.435750 0.106480 1.734090
5.128960 -0.213782 1.459863
4.500521 -0.273818 1.646436
3.841857 -0.329972 1.824115
3.193415 -0.383077 1.979584
5.431147 -0.596599 1.437426
4.894487 -0.685010 1.643855
4.242866 -0.775400 1.833310
3.585918 -0.863521 1.993426
5.327331 -1.082261 1.491799
4.634860 -1.204213 1.734850
3.976748 -1.329550 1.908233
3.316794 -1.443457 2.045052
5.444627 -1.504384 1.262783
4.956157 -1.594934 1.495090
4.341082 -1.743809 1.681081
3.692096 -1.897266 1.818827
5.204213 -1.870961 1.147261
4.651362 -2.055042 1.333841
4.051153 -2.254358 1.455311
3.392570 -2.430389 1.569247
5.397577 -2.041463 0.751202
4.925853 -2.204671 0.948295
4.401837 -2.468309 0.994006
3.759259 -2.699605 1.094141
5.528904 -2.145804 0.279461
4.892093 -2.465567 0.502986
4.123847 -2.837054 0.539374
3.388466 -3.067429 0.699654
5.122998 -2.430555 -0.028188
4.549910 -2.719876 0.035870
4.022138 -2.950193 0.011336
3.587807 -3.114927 0.187831
5.252384 -2.286809 -0.495094
4.728347 -2.567051 -0.446625
4.138865 -2.832880 -0.453590
3.451547 -3.135428 -0.379019
5.240857 -2.082531 -0.942593
4.782674 -2.355637 -0.892780
4.298091 -2.592674 -0.826832
3.712151 -2.810714 -0.889384
5.288447 -1.796201 -1.331244
4.742059 -2.081630 -1.336041
4.091271 -2.398195 -1.303974
3.326806 -2.659588 -1.354275
5.452593 -1.453058 -1.672973
4.881080 -1.767697 -1.667800
4.273605 -2.027043 -1.701427
3.619799 -2.264907 -1.738183
5.016229 -1.466566 -1.966059
4.485568 -1.663420 -2.036265
3.858111 -1.875067 -2.096450
3.198597 -2.055534 -2.148252
5.332845 -1.172422 -2.120629
4.749878 -1.300597 -2.321040
4.108337 -1.493820 -2.414445
3.456406 -1.655193 -2.479999
5.071944 -0.898003 -2.526773
4.367542 -1.086938 -2.664344
3.701700 -1.224392 -2.748093
3.036788 -1.339827 -2.784101
5.075015 -0.478795 -2.734817
4.575218 -0.630298 -2.848494
3.941556 -0.753115 -2.930603
3.257495 -0.852532 -2.976512
5.323080 -0.126074 -2.742182
4.763870 -0.182710 -2.928293
4.176591 -0.273919 -3.041445
3.511271 -0.352884 -3.094197
5.012275 0.229626 -2.904706
4.430184 0.187330 -3.049664
3.791435 0.128655 -3.126395
3.087623 0.072177 -3.136181
5.208494 0.621921 -2.780934
4.665330 0.620616 -2.953383
4.079981 0.572476 -3.058674
3.404227 0.522315 -3.082446
4.856463 0.979319 -2.711282
4.260798 0.975869 -2.853003
3.717384 0.885116 -2.928243
3.127865 0.924174 -2.896900
5.045910 1.193292 -2.342286
4.436486 1.248429 -2.454386
3.673849 1.236494 -2.591133
2.890931 1.261546 -2.518636
2.119549 1.790294 -0.279429
2.336006 1.731141 -0.778731
2.619590 1.628606 -1.249185
2.273764 1.592821 -1.680469
2.630576 1.438295 -2.085804
1.555901 1.941804 -0.205316
1.744225 1.872990 -0.723683
1.955302 1.746189 -1.232420
1.607000 1.700285 -1.699445
1.955431 1.504747 -2.115644
0.993026 2.135709 -0.166066
1.222865 2.031784 -0.640100
1.240643 1.948576 -1.219167
1.011063 1.836684 -1.792135
1.353727 1.552728 -2.189212
0.469497 2.315530 -0.250168
0.639508 2.221543 -0.811656
0.584107 2.100627 -1.421136
0.464284 1.934501 -1.911200
0.706433 1.671907 -2.306106
2.489054 1.624035 0.115811
1.901216 1.780106 0.217031
1.329377 1.952738 0.299530
0.676777 2.213245 0.357116
2.251058 1.547689 0.578870
1.720217 1.668587 0.726001
1.219153 1.831245 0.855750
0.749409 1.975726 0.974077
2.596188 1.283293 0.852465
2.097613 1.342646 1.057707
1.542408 1.442804 1.244428
0.966346 1.635198 1.420805
2.642191 0.960806 1.292027
1.986568 1.020988 1.524150
1.377194 1.081108 1.750779
0.829837 1.258680 1.861643
2.419218 0.569967 1.720187
1.847010 0.587257 1.905442
1.349864 0.557848 2.108439
0.888930 0.793041 2.157576
2.804223 0.092607 1.883881
2.205401 0.089135 2.051601
1.623960 0.075655 2.222054
1.010535 0.155695 2.398690
2.565172 -0.429549 2.117265
1.963144 -0.460434 2.272917
1.383615 -0.466512 2.408418
0.860681 -0.426403 2.523790
2.935570 -0.943485 2.123062
2.300301 -1.008119 2.258175
1.669744 -1.049655 2.382477
1.016958 -1.048738 2.496650
2.660473 -1.538620 2.151918
2.018636 -1.607455 2.236764
1.410534 -1.647789 2.319247
0.863674 -1.640370 2.340194
3.025097 -2.026416 1.925560
2.357851 -2.124938 2.003620
1.699173 -2.185344 2.055269
1.031559 -2.200754 2.094257
2.710495 -2.563049 1.651193
2.043355 -2.650503 1.696457
1.417493 -2.691438 1.721913
0.870589 -2.664889 1.717018
3.057470 -2.886168 1.198613
2.366699 -3.021234 1.246109
1.677517 -3.090674 1.263309
0.996931 -3.091406 1.273388
2.707960 -3.254666 0.730003
2.001615 -3.364919 0.746113
1.293125 -3.404098 0.753234
0.654912 -3.359494 0.733414
3.028274 -3.311467 0.169788
2.347641 -3.462893 0.179517
1.607680 -3.536756 0.180890
0.781475 -3.526057 0.160561
2.705595 -3.338616 -0.394876
1.970443 -3.462199 -0.389027
1.229664 -3.508360 -0.393211
0.585089 -3.456646 -0.463037
3.033460 -3.039921 -0.903305
2.308041 -3.200419 -0.915702
1.568839 -3.283304 -0.924684
0.766257 -3.270032 -0.957769
2.622549 -2.846008 -1.378785
1.907517 -2.964663 -1.398418
1.195613 -3.011327 -1.414908
0.571276 -2.956118 -1.472649
2.915941 -2.458321 -1.787879
2.216881 -2.593978 -1.820880
1.508076 -2.670233 -1.848702
0.739662 -2.666725 -1.887260
2.510823 -2.195304 -2.190407
1.819141 -2.292558 -2.225323
1.136302 -2.341345 -2.257516
0.538652 -2.298462 -2.314467
2.792226 -1.783068 -2.512645
2.110737 -1.881705 -2.543192
1.425211 -1.940012 -2.583135
0.700872 -1.940176 -2.647528
2.391364 -1.451525 -2.795370
1.720963 -1.521597 -2.825511
1.083807 -1.530531 -2.889262
0.510880 -1.494668 -2.954424
2.579358 -0.969982 -2.988824
1.995866 -1.101641 -2.980029
1.409190 -1.061902 -3.051162
0.677563 -1.048746 -3.136626
2.790138 -0.425453 -3.098501
1.893771 -0.533605 -3.146563
1.070636 -0.594112 -3.197488
0.494856 -0.528670 -3.267383
2.373201 0.031998 -3.135634
1.771376 0.074787 -3.153247
1.190700 -0.031674 -3.219629
0.588467 -0.043759 -3.297418
2.711131 0.517605 -3.047824
2.047797 0.510162 -3.053902
1.358179 0.468793 -3.117188
0.679638 0.492147 -3.235150
2.344735 0.959306 -2.831445
1.610883 0.883925 -2.904443
1.006400 0.902776 -2.991887
0.487991 1.013729 -3.038607
2.308878 1.285426 -2.436076
1.763052 1.263171 -2.541016
1.160616 1.282263 -2.632676
0.570155 1.377420 -2.730753
0.432495 1.037075 2.136859
0.436370 1.553854 1.739167
0.425862 1.908978 1.309849
0.376186 2.153082 0.807786
0.446487 -1.336566 2.424464
0.446745 -0.754020 2.548534
0.463741 -0.088601 2.550581
0.481864 0.480151 2.404158
0.410627 -3.107933 1.094552
0.453197 -2.824601 1.482336
0.456444 -2.410808 1.883780
0.456779 -1.933226 2.179395
0.316042 -3.289496 0.730270
0.000000 1.830789 -2.244118
0.000000 2.055773 -1.860636
0.000000 1.753099 -2.389317
0.000000 2.102643 -1.729945
0.000000 2.265870 -1.309920
0.000000 2.286891 -1.204131
0.000000 2.385353 -0.726089
0.000000 2.388933 -0.657794
0.000000 2.415987 -0.093630
0.000000 1.248876 1.944610
0.000000 1.503496 1.728106
0.000000 1.749268 1.528767
0.000000 1.995289 1.198972
0.000000 2.099440 1.065676
0.000000 2.293257 0.595049
0.000000 2.320701 0.527684
0.000000 2.397455 0.057078
0.000000 -1.048058 2.367644
0.000000 -0.813448 2.396465
0.000000 -0.424592 2.467917
0.000000 -0.252212 2.453226
0.000000 0.134689 2.438695
0.000000 0.292969 2.387412
0.000000 0.678001 2.266979
0.000000 0.878275 2.152481
0.000000 -2.977059 1.109662
0.000000 -2.672003 1.466814
0.000000 -2.591004 1.565544
0.000000 -2.282521 1.809155
0.000000 -2.154268 1.916096
0.000000 -1.849279 2.070375
0.000000 -1.649782 2.175604
0.000000 -1.359337 2.262229
0.000000 -3.189725 -0.893144
0.000000 -3.194662 -0.879586
0.000000 -3.363681 -0.388223
0.000000 -3.364508 -0.373544
0.000000 -3.388816 0.110070
0.000000 -3.264955 0.587730
0.000000 -3.363137 0.213314
0.000000 -3.259655 0.606789
0.000000 -3.387687 0.114591
0.000000 -3.011196 1.049501
0.000000 -1.998029 -2.579888
0.000000 -2.073344 -2.505671
0.000000 -2.343543 -2.212471
0.000000 -2.383831 -2.163763
0.000000 -2.652573 -1.813371
0.000000 -2.670825 -1.786632
0.000000 -2.931858 -1.376759
0.000000 -2.939650 -1.363032
0.000000 -0.101058 -3.332313
0.000000 -0.317478 -3.308995
0.000000 -0.663507 -3.258959
0.000000 -0.859487 -3.205709
0.000000 -1.163987 -3.112074
0.000000 -1.325514 -3.035602
0.000000 -1.607352 -2.887342
0.000000 -1.725728 -2.801091
0.000000 1.650829 -2.517137
0.000000 1.377944 -2.835070
0.000000 1.245117 -2.933135
0.000000 0.949139 -3.137993
0.000000 0.782899 -3.198679
0.000000 0.458462 -3.302465
0.000000 0.255898 -3.318871
3 0 99 111
3 3 2 1
3 3 6 0
3 9 6 7
3 36 50 8
3 32 8 7
3 5 0 6
3 5 4 0
3 3 0 2
3 7 1 32
3 10 6 9
3 5 6 10
3 5 10 11
3 3 1 7
3 3 7 6
3 7 8 9
3 4 99 0
3 4 13 99
3 13 88 87
3 11 16 15
3 12 9 8
3 49 17 12
3 20 15 16
3 12 8 50
3 4 14 13
3 14 4 5
3 11 18 14
3 11 15 18
3 9 12 10
3 16 10 12
3 20 16 17
3 75 88 18
3 13 14 88
3 11 10 16
3 76 18 15
3 19 61 60
3 19 15 20
3 63 78 60
3 17 16 12
3 110 112 23
3 21 22 24
3 25 24 22
3 110 23 27
3 26 1 110
3 23 24 28
3 23 28 27
3 24 25 29
3 24 29 28
3 26 110 27
3 26 27 33
3 33 32 26
3 30 33 27
3 27 28 30
3 30 28 34
3 28 29 31
3 31 34 28
3 30 34 33
3 34 31 43
3 36 38 50
3 61 19 20
3 36 39 38
3 26 32 1
3 36 8 32
3 56 52 37
3 37 50 38
3 39 36 32
3 39 32 33
3 37 38 41
3 37 41 40
3 38 42 41
3 42 38 39
3 43 42 34
3 39 33 34
3 39 34 42
3 40 41 44
3 45 44 41
3 41 42 46
3 41 46 45
3 42 43 46
3 47 46 35
3 35 43 31
3 43 35 46
3 62 20 17
3 62 17 48
3 17 49 48
3 49 12 50
3 66 48 51
3 66 51 70
3 48 49 52
3 48 52 51
3 53 70 54
3 54 70 51
3 51 52 55
3 51 55 54
3 50 37 52
3 52 56 55
3 49 50 52
3 40 56 37
3 53 54 57
3 169 74 57
3 54 55 58
3 54 58 57
3 59 55 40
3 55 59 58
3 56 40 55
3 44 59 40
3 19 76 15
3 76 19 60
3 62 61 20
3 66 62 48
3 76 60 78
3 64 63 60
3 60 61 65
3 60 65 64
3 61 62 65
3 66 65 62
3 63 64 67
3 68 67 64
3 69 64 70
3 64 69 68
3 65 66 70
3 65 70 64
3 67 68 71
3 72 71 68
3 68 69 73
3 68 73 72
3 74 69 53
3 69 74 73
3 70 53 69
3 53 57 74
3 18 88 14
3 82 81 80
3 75 78 77
3 76 78 75
3 91 77 94
3 90 88 75
3 77 79 94
3 78 82 77
3 78 63 82
3 67 82 63
3 80 84 79
3 83 79 84
3 80 81 84
3 85 84 81
3 81 82 86
3 81 86 85
3 82 67 86
3 71 86 67
3 11 14 5
3 76 75 18
3 80 77 82
3 87 88 90
3 101 99 13
3 90 77 91
3 90 75 77
3 77 80 79
3 89 93 92
3 91 87 90
3 91 89 87
3 93 91 94
3 92 93 95
3 109 95 217
3 93 96 95
3 93 94 96
3 97 96 94
3 94 79 97
3 83 97 79
3 87 89 101
3 100 114 98
3 103 102 117
3 98 105 100
3 105 98 101
3 13 87 101
3 93 89 91
3 103 117 100
3 113 114 117
3 100 105 103
3 104 103 105
3 99 101 98
3 89 105 101
3 92 105 89
3 102 103 107
3 102 107 106
3 103 104 107
3 108 107 104
3 109 104 92
3 104 109 108
3 105 92 104
3 109 92 95
3 2 111 110
3 114 112 111
3 111 2 0
3 1 2 110
3 98 111 99
3 111 98 114
3 21 24 23
3 113 112 114
3 110 111 112
3 21 112 113
3 21 113 115
3 21 23 112
3 116 115 117
3 113 117 115
3 100 117 114
3 21 115 22
3 118 22 115
3 115 116 118
3 119 118 116
3 120 116 102
3 116 120 119
3 117 102 116
3 106 120 102
3 35 122 47
3 31 122 35
3 31 29 122
3 123 122 29
3 29 25 123
3 124 123 25
3 124 25 125
3 22 125 25
3 127 121 123
3 121 127 142
3 122 123 121
3 128 127 123
3 123 124 128
3 129 128 124
3 129 124 130
3 125 130 124
3 132 126 133
3 126 132 143
3 127 128 133
3 127 133 126
3 128 129 133
3 134 133 129
3 129 130 135
3 129 135 134
3 131 132 137
3 131 137 136
3 132 133 138
3 132 138 137
3 133 134 138
3 139 138 134
3 134 135 140
3 134 140 139
3 121 47 122
3 141 47 121
3 126 142 127
3 121 142 141
3 131 143 132
3 126 143 142
3 131 136 144
3 131 144 143
3 47 141 145
3 47 145 46
3 141 142 146
3 145 141 149
3 142 143 147
3 142 147 146
3 143 144 147
3 148 147 144
3 46 145 45
3 45 145 153
3 146 149 141
3 150 149 146
3 151 150 147
3 146 147 150
3 147 148 152
3 147 152 151
3 44 45 153
3 149 153 145
3 149 150 154
3 149 154 153
3 150 151 155
3 150 155 154
3 151 152 156
3 151 156 155
3 44 153 59
3 157 59 153
3 153 154 157
3 158 157 154
3 154 155 158
3 159 158 155
3 155 156 159
3 160 159 156
3 58 59 161
3 157 161 59
3 157 158 162
3 157 162 161
3 158 159 163
3 158 163 162
3 159 160 164
3 159 164 163
3 58 161 57
3 165 57 161
3 161 162 165
3 166 165 162
3 162 163 166
3 167 166 163
3 163 164 167
3 168 167 164
3 165 169 57
3 169 165 170
3 166 170 165
3 166 167 171
3 166 171 170
3 167 168 172
3 167 172 171
3 173 74 169
3 169 170 173
3 174 173 170
3 170 171 174
3 175 174 171
3 171 172 175
3 176 175 172
3 74 173 73
3 177 73 173
3 174 178 173
3 177 173 178
3 178 174 179
3 175 179 174
3 175 176 180
3 175 180 179
3 73 177 72
3 181 72 177
3 177 178 181
3 182 181 178
3 178 179 182
3 183 182 179
3 179 180 183
3 184 183 180
3 72 181 185
3 72 185 71
3 181 182 186
3 181 186 185
3 182 183 187
3 182 187 186
3 183 184 188
3 183 188 187
3 71 185 189
3 71 189 86
3 185 186 190
3 185 190 189
3 186 187 190
3 191 190 187
3 187 188 191
3 192 191 188
3 86 189 85
3 193 85 189
3 189 190 193
3 194 193 190
3 190 191 194
3 195 194 191
3 191 192 196
3 191 196 195
3 85 193 197
3 85 197 84
3 193 194 198
3 193 198 197
3 194 195 199
3 194 199 198
3 195 196 200
3 195 200 199
3 84 197 201
3 84 201 83
3 197 198 202
3 197 202 201
3 198 199 203
3 198 203 202
3 199 200 204
3 199 204 203
3 83 201 205
3 83 205 97
3 201 202 206
3 201 206 205
3 202 203 207
3 202 207 206
3 203 204 207
3 208 207 204
3 97 205 209
3 97 209 96
3 205 206 210
3 205 210 209
3 206 207 211
3 206 211 210
3 207 208 212
3 207 212 211
3 96 209 95
3 95 209 217
3 209 210 213
3 214 213 210
3 210 211 214
3 215 214 211
3 211 212 215
3 216 215 212
3 213 217 209
3 213 214 218
3 213 218 217
3 214 215 219
3 214 219 218
3 215 216 220
3 215 220 219
3 221 109 217
3 217 218 221
3 222 221 218
3 218 219 222
3 223 222 219
3 219 220 223
3 224 223 220
3 109 221 108
3 225 108 221
3 221 222 226
3 221 226 225
3 222 223 227
3 222 227 226
3 223 224 228
3 223 228 227
3 107 108 229
3 225 229 108
3 225 226 230
3 225 230 229
3 226 227 231
3 226 231 230
3 227 228 232
3 227 232 231
3 107 229 106
3 233 106 229
3 229 230 233
3 234 233 230
3 230 231 234
3 235 234 231
3 231 232 235
3 236 235 232
3 120 106 237
3 233 237 106
3 233 234 238
3 233 238 237
3 234 235 239
3 234 239 238
3 235 236 240
3 235 240 239
3 120 237 119
3 241 119 237
3 237 238 241
3 242 241 238
3 238 239 242
3 243 242 239
3 239 240 243
3 244 243 240
3 119 241 245
3 119 245 118
3 241 242 246
3 241 246 245
3 246 242 247
3 243 247 242
3 243 244 247
3 248 247 244
3 118 245 125
3 118 125 22
3 245 246 130
3 245 130 125
3 246 247 135
3 246 135 130
3 247 248 140
3 247 140 135
3 136 137 250
3 136 250 249
3 137 138 251
3 137 251 250
3 138 139 251
3 252 251 139
3 139 140 253
3 139 253 252
3 249 250 255
3 249 255 254
3 250 251 256
3 250 256 255
3 251 252 256
3 257 256 252
3 252 253 258
3 252 258 257
3 254 255 260
3 254 260 259
3 255 256 261
3 255 261 260
3 256 257 261
3 262 261 257
3 257 258 263
3 257 263 262
3 259 260 265
3 259 265 264
3 260 261 265
3 266 265 261
3 261 262 266
3 267 266 262
3 262 263 268
3 262 268 267
3 136 249 269
3 136 269 144
3 249 254 270
3 249 270 269
3 254 259 271
3 254 271 270
3 259 264 272
3 259 272 271
3 144 269 148
3 273 148 269
3 269 270 273
3 274 273 270
3 270 271 274
3 275 274 271
3 271 272 275
3 276 275 272
3 148 273 277
3 148 277 152
3 273 274 278
3 273 278 277
3 274 275 279
3 274 279 278
3 275 276 280
3 275 280 279
3 152 277 281
3 152 281 156
3 277 278 281
3 282 281 278
3 278 279 282
3 283 282 279
3 279 280 283
3 284 283 280
3 156 281 160
3 285 160 281
3 281 282 285
3 286 285 282
3 282 283 286
3 287 286 283
3 283 284 288
3 283 288 287
3 160 285 289
3 160 289 164
3 285 286 290
3 285 290 289
3 286 287 291
3 286 291 290
3 287 288 292
3 287 292 291
3 164 289 168
3 293 168 289
3 289 290 293
3 294 293 290
3 290 291 294
3 295 294 291
3 291 292 295
3 296 295 292
3 168 293 297
3 168 297 172
3 293 294 298
3 293 298 297
3 294 295 299
3 294 299 298
3 295 296 300
3 295 300 299
3 172 297 176
3 301 176 297
3 297 298 301
3 302 301 298
3 298 299 302
3 303 302 299
3 299 300 303
3 304 303 300
3 176 301 305
3 176 305 180
3 301 302 306
3 301 306 305
3 302 303 307
3 302 307 306
3 307 303 308
3 304 308 303
3 180 305 184
3 309 184 305
3 305 306 309
3 310 309 306
3 306 307 310
3 311 310 307
3 307 308 311
3 312 311 308
3 184 309 313
3 184 313 188
3 309 310 314
3 309 314 313
3 310 311 315
3 310 315 314
3 315 311 316
3 312 316 311
3 188 313 192
3 317 192 313
3 313 314 317
3 318 317 314
3 314 315 318
3 319 318 315
3 315 316 319
3 320 319 316
3 192 317 321
3 192 321 196
3 317 318 322
3 317 322 321
3 318 319 323
3 318 323 322
3 323 319 324
3 320 324 319
3 196 321 200
3 325 200 321
3 321 322 325
3 326 325 322
3 322 323 326
3 327 326 323
3 323 324 327
3 328 327 324
3 200 325 329
3 200 329 204
3 325 326 330
3 325 330 329
3 330 326 331
3 327 331 326
3 331 327 332
3 328 332 327
3 204 329 208
3 333 208 329
3 329 330 333
3 334 333 330
3 330 331 334
3 335 334 331
3 331 332 335
3 336 335 332
3 208 333 337
3 208 337 212
3 333 334 338
3 333 338 337
3 338 334 339
3 335 339 334
3 339 335 340
3 336 340 335
3 212 337 216
3 341 216 337
3 337 338 341
3 342 341 338
3 338 339 342
3 343 342 339
3 339 340 343
3 344 343 340
3 216 341 345
3 216 345 220
3 341 342 346
3 341 346 345
3 346 342 347
3 343 347 342
3 347 343 348
3 344 348 343
3 220 345 224
3 349 224 345
3 345 346 349
3 350 349 346
3 346 347 350
3 351 350 347
3 347 348 351
3 352 351 348
3 224 349 353
3 224 353 228
3 349 350 354
3 349 354 353
3 350 351 355
3 350 355 354
3 351 352 356
3 351 356 355
3 228 353 357
3 228 357 232
3 353 354 358
3 353 358 357
3 354 355 358
3 359 358 355
3 355 356 359
3 360 359 356
3 232 357 236
3 361 236 357
3 357 358 361
3 362 361 358
3 358 359 363
3 358 363 362
3 359 360 364
3 359 364 363
3 236 361 365
3 236 365 240
3 361 362 366
3 361 366 365
3 362 363 367
3 362 367 366
3 363 364 368
3 363 368 367
3 240 365 244
3 369 244 365
3 365 366 369
3 370 369 366
3 366 367 370
3 371 370 367
3 367 368 371
3 372 371 368
3 244 369 248
3 373 248 369
3 369 370 374
3 369 374 373
3 370 371 375
3 370 375 374
3 371 372 376
3 371 376 375
3 248 373 253
3 248 253 140
3 373 374 258
3 373 258 253
3 374 375 263
3 374 263 258
3 375 376 268
3 375 268 263
3 390 391 267
3 390 267 268
3 392 390 268
3 393 394 266
3 393 266 267
3 391 393 267
3 395 396 265
3 395 265 266
3 394 395 266
3 397 398 264
3 397 264 265
3 396 397 265
3 399 377 378
3 400 399 378
3 400 378 401
3 377 284 378
3 280 378 284
3 401 378 379
3 402 401 379
3 402 379 403
3 276 379 280
3 378 280 379
3 403 379 380
3 404 403 380
3 404 380 405
3 379 276 380
3 272 380 276
3 406 405 272
3 380 272 405
3 264 406 272
3 406 264 398
3 407 381 382
3 408 407 382
3 408 382 409
3 296 382 300
3 381 300 382
3 409 382 383
3 410 409 383
3 410 383 411
3 382 296 383
3 292 383 296
3 411 383 384
3 412 411 384
3 412 384 413
3 288 384 292
3 383 292 384
3 413 384 377
3 414 413 377
3 414 377 399
3 384 288 377
3 284 377 288
3 415 385 386
3 416 415 386
3 416 386 417
3 385 316 386
3 312 386 316
3 417 386 387
3 418 417 387
3 418 387 419
3 386 312 387
3 308 387 312
3 419 387 388
3 420 419 388
3 420 388 421
3 387 308 388
3 304 388 308
3 421 388 381
3 422 421 381
3 422 381 407
3 388 304 381
3 300 381 304
3 423 332 328
3 424 423 328
3 424 328 425
3 425 328 324
3 426 425 324
3 426 324 427
3 428 429 389
3 428 389 430
3 427 324 320
3 431 427 320
3 431 320 389
3 429 431 389
3 430 389 385
3 432 430 385
3 432 385 415
3 389 320 385
3 316 385 320
3 433 348 344
3 434 433 344
3 434 344 435
3 435 344 340
3 436 435 340
3 436 340 437
3 437 340 336
3 438 437 336
3 438 336 439
3 439 336 332
3 440 439 332
3 440 332 423
3 441 364 360
3 442 441 360
3 442 360 443
3 443 360 356
3 444 443 356
3 444 356 445
3 445 356 352
3 446 445 352
3 446 352 447
3 447 352 348
3 448 447 348
3 448 348 433
3 392 268 376
3 449 392 376
3 449 376 450
3 450 376 372
3 451 450 372
3 451 372 452
3 452 372 368
3 453 452 368
3 453 368 454
3 454 368 364
3 455 454 364
3 455 364 441
